{
  "bindings": [{
      "authLevel": "function",
      "type": "httpTrigger",
      "direction": "in",
      "name": "req",
      "route": "v1/orders/{*orderId}",
      "methods": [
        "get"
      ]
    },
    {
      "type": "http",
      "direction": "out",
      "name": "res"
    }
  ],
  "scriptFile": "../dist/orders-get/index.js"
}
